{
  "total": 100508,
  "total_pages": 10051,
  "results": [
    {
      "id": "08bOYnH_r_E",
      "created_at": "2017-03-29T16:14:13-04:00",
      "updated_at": "2019-05-21T01:04:16-04:00",
      "width": 3997,
      "height": 3171,
      "color": "#161111",
      "description": "\u2018Tis the season of rhubarb. And strawberry. And blood orange. Praise be. Amen.",
      "alt_description": "variety of sliced fruits",
      "urls": {
        "raw": "https://images.unsplash.com/photo-1490818387583-1baba5e638af?ixlib=rb-1.2.1&ixid=eyJhcHBfaWQiOjk2OTN9",
        "full": "https://images.unsplash.com/photo-1490818387583-1baba5e638af?ixlib=rb-1.2.1&q=85&fm=jpg&crop=entropy&cs=srgb&ixid=eyJhcHBfaWQiOjk2OTN9",
        "regular": "https://images.unsplash.com/photo-1490818387583-1baba5e638af?ixlib=rb-1.2.1&q=80&fm=jpg&crop=entropy&cs=tinysrgb&w=1080&fit=max&ixid=eyJhcHBfaWQiOjk2OTN9",
        "small": "https://images.unsplash.com/photo-1490818387583-1baba5e638af?ixlib=rb-1.2.1&q=80&fm=jpg&crop=entropy&cs=tinysrgb&w=400&fit=max&ixid=eyJhcHBfaWQiOjk2OTN9",
        "thumb": "https://images.unsplash.com/photo-1490818387583-1baba5e638af?ixlib=rb-1.2.1&q=80&fm=jpg&crop=entropy&cs=tinysrgb&w=200&fit=max&ixid=eyJhcHBfaWQiOjk2OTN9"
      },
      "links": {
        "self": "https://api.unsplash.com/photos/08bOYnH_r_E",
        "html": "https://unsplash.com/photos/08bOYnH_r_E",
        "download": "https://unsplash.com/photos/08bOYnH_r_E/download",
        "download_location": "https://api.unsplash.com/photos/08bOYnH_r_E/download"
      },
      "categories": [],
      "sponsored": false,
      "sponsored_by": null,
      "sponsored_impressions_id": null,
      "likes": 2246,
      "liked_by_user": false,
      "current_user_collections": [],
      "user": {
        "id": "pVJLqUK0Dh4",
        "updated_at": "2019-05-27T07:02:04-04:00",
        "username": "brookelark",
        "name": "Brooke Lark",
        "first_name": "Brooke",
        "last_name": "Lark",
        "twitter_username": null,
        "portfolio_url": "http://www.brookelark.com",
        "bio": "Real Food fanatic. Bike rider. People lover. Running around with a camera.",
        "location": "SLC, UT",
        "links": {
          "self": "https://api.unsplash.com/users/brookelark",
          "html": "https://unsplash.com/@brookelark",
          "photos": "https://api.unsplash.com/users/brookelark/photos",
          "likes": "https://api.unsplash.com/users/brookelark/likes",
          "portfolio": "https://api.unsplash.com/users/brookelark/portfolio",
          "following": "https://api.unsplash.com/users/brookelark/following",
          "followers": "https://api.unsplash.com/users/brookelark/followers"
        },
        "profile_image": {
          "small": "https://images.unsplash.com/profile-1496175100457-27a8e68786eb?ixlib=rb-1.2.1&q=80&fm=jpg&crop=faces&cs=tinysrgb&fit=crop&h=32&w=32",
          "medium": "https://images.unsplash.com/profile-1496175100457-27a8e68786eb?ixlib=rb-1.2.1&q=80&fm=jpg&crop=faces&cs=tinysrgb&fit=crop&h=64&w=64",
          "large": "https://images.unsplash.com/profile-1496175100457-27a8e68786eb?ixlib=rb-1.2.1&q=80&fm=jpg&crop=faces&cs=tinysrgb&fit=crop&h=128&w=128"
        },
        "instagram_username": "brookelark",
        "total_collections": 0,
        "total_likes": 3,
        "total_photos": 102,
        "accepted_tos": false
      },
      "tags": [
        { "title": "fruit" },
        { "title": "healthy" },
        { "title": "background" },
        { "title": "bowl" },
        { "title": "kitchen" },
        { "title": "vegan" },
        { "title": "blog" },
        { "title": "health" },
        { "title": "cooking" },
        { "title": "scissors" },
        { "title": "tulip" },
        { "title": "grapefruit" },
        { "title": "rhubarb" },
        { "title": "blackberry" },
        { "title": "strawberries" },
        { "title": "white space" },
        { "title": "flat lay" },
        { "title": "leaves" },
        { "title": "desert" },
        { "title": "organic" }
      ]
    },
    {
      "id": "1SPu0KT-Ejg",
      "created_at": "2017-11-26T05:05:00-05:00",
      "updated_at": "2019-05-21T01:02:30-04:00",
      "width": 3751,
      "height": 4689,
      "color": "#D4DDDE",
      "description": "Yogurt Bowl",
      "alt_description": "silver spoon on black ceramic bowl with vegetables",
      "urls": {
        "raw": "https://images.unsplash.com/photo-1511690656952-34342bb7c2f2?ixlib=rb-1.2.1&ixid=eyJhcHBfaWQiOjk2OTN9",
        "full": "https://images.unsplash.com/photo-1511690656952-34342bb7c2f2?ixlib=rb-1.2.1&q=85&fm=jpg&crop=entropy&cs=srgb&ixid=eyJhcHBfaWQiOjk2OTN9",
        "regular": "https://images.unsplash.com/photo-1511690656952-34342bb7c2f2?ixlib=rb-1.2.1&q=80&fm=jpg&crop=entropy&cs=tinysrgb&w=1080&fit=max&ixid=eyJhcHBfaWQiOjk2OTN9",
        "small": "https://images.unsplash.com/photo-1511690656952-34342bb7c2f2?ixlib=rb-1.2.1&q=80&fm=jpg&crop=entropy&cs=tinysrgb&w=400&fit=max&ixid=eyJhcHBfaWQiOjk2OTN9",
        "thumb": "https://images.unsplash.com/photo-1511690656952-34342bb7c2f2?ixlib=rb-1.2.1&q=80&fm=jpg&crop=entropy&cs=tinysrgb&w=200&fit=max&ixid=eyJhcHBfaWQiOjk2OTN9"
      },
      "links": {
        "self": "https://api.unsplash.com/photos/1SPu0KT-Ejg",
        "html": "https://unsplash.com/photos/1SPu0KT-Ejg",
        "download": "https://unsplash.com/photos/1SPu0KT-Ejg/download",
        "download_location": "https://api.unsplash.com/photos/1SPu0KT-Ejg/download"
      },
      "categories": [],
      "sponsored": false,
      "sponsored_by": null,
      "sponsored_impressions_id": null,
      "likes": 547,
      "liked_by_user": false,
      "current_user_collections": [],
      "user": {
        "id": "9BWWDwZ-hRE",
        "updated_at": "2019-05-27T02:54:00-04:00",
        "username": "edgarraw",
        "name": "Edgar Castrejon",
        "first_name": "Edgar",
        "last_name": "Castrejon",
        "twitter_username": null,
        "portfolio_url": "http://Www.edgarraweats.com",
        "bio": "A plant based chef that\u2019s passionate about photography and traveling. ",
        "location": "Oakland, CA",
        "links": {
          "self": "https://api.unsplash.com/users/edgarraw",
          "html": "https://unsplash.com/@edgarraw",
          "photos": "https://api.unsplash.com/users/edgarraw/photos",
          "likes": "https://api.unsplash.com/users/edgarraw/likes",
          "portfolio": "https://api.unsplash.com/users/edgarraw/portfolio",
          "following": "https://api.unsplash.com/users/edgarraw/following",
          "followers": "https://api.unsplash.com/users/edgarraw/followers"
        },
        "profile_image": {
          "small": "https://images.unsplash.com/profile-1511689084658-01d41b7772ff?ixlib=rb-1.2.1&q=80&fm=jpg&crop=faces&cs=tinysrgb&fit=crop&h=32&w=32",
          "medium": "https://images.unsplash.com/profile-1511689084658-01d41b7772ff?ixlib=rb-1.2.1&q=80&fm=jpg&crop=faces&cs=tinysrgb&fit=crop&h=64&w=64",
          "large": "https://images.unsplash.com/profile-1511689084658-01d41b7772ff?ixlib=rb-1.2.1&q=80&fm=jpg&crop=faces&cs=tinysrgb&fit=crop&h=128&w=128"
        },
        "instagram_username": "Edgarraw",
        "total_collections": 0,
        "total_likes": 9,
        "total_photos": 29,
        "accepted_tos": true
      },
      "tags": [
        { "title": "bean" },
        { "title": "vegetable" },
        { "title": "produce" },
        { "title": "plant" },
        { "title": "flora" },
        { "title": "vegan" },
        { "title": "healthy" },
        { "title": "bowl" },
        { "title": "meal" },
        { "title": "ivy" },
        { "title": "united states" },
        { "title": "oakland" },
        { "title": "olives" },
        { "title": "beans" },
        { "title": "table" },
        { "title": "flatlay" },
        { "title": "flowers" },
        { "title": "chickpeas" },
        { "title": "salad" },
        { "title": "daisy" }
      ]
    },
    {
      "id": "4_jhDO54BYg",
      "created_at": "2017-06-30T11:40:22-04:00",
      "updated_at": "2019-05-21T01:02:21-04:00",
      "width": 5512,
      "height": 3675,
      "color": "#F66D0A",
      "description": "w/ Platterz",
      "alt_description": "macro shot of vegetable lot",
      "urls": {
        "raw": "https://images.unsplash.com/photo-1498837167922-ddd27525d352?ixlib=rb-1.2.1&ixid=eyJhcHBfaWQiOjk2OTN9",
        "full": "https://images.unsplash.com/photo-1498837167922-ddd27525d352?ixlib=rb-1.2.1&q=85&fm=jpg&crop=entropy&cs=srgb&ixid=eyJhcHBfaWQiOjk2OTN9",
        "regular": "https://images.unsplash.com/photo-1498837167922-ddd27525d352?ixlib=rb-1.2.1&q=80&fm=jpg&crop=entropy&cs=tinysrgb&w=1080&fit=max&ixid=eyJhcHBfaWQiOjk2OTN9",
        "small": "https://images.unsplash.com/photo-1498837167922-ddd27525d352?ixlib=rb-1.2.1&q=80&fm=jpg&crop=entropy&cs=tinysrgb&w=400&fit=max&ixid=eyJhcHBfaWQiOjk2OTN9",
        "thumb": "https://images.unsplash.com/photo-1498837167922-ddd27525d352?ixlib=rb-1.2.1&q=80&fm=jpg&crop=entropy&cs=tinysrgb&w=200&fit=max&ixid=eyJhcHBfaWQiOjk2OTN9"
      },
      "links": {
        "self": "https://api.unsplash.com/photos/4_jhDO54BYg",
        "html": "https://unsplash.com/photos/4_jhDO54BYg",
        "download": "https://unsplash.com/photos/4_jhDO54BYg/download",
        "download_location": "https://api.unsplash.com/photos/4_jhDO54BYg/download"
      },
      "categories": [],
      "sponsored": false,
      "sponsored_by": null,
      "sponsored_impressions_id": null,
      "likes": 872,
      "liked_by_user": false,
      "current_user_collections": [],
      "user": {
        "id": "aIFG31Iva4w",
        "updated_at": "2019-05-25T20:40:07-04:00",
        "username": "danielcgold",
        "name": "Dan Gold",
        "first_name": "Dan",
        "last_name": "Gold",
        "twitter_username": "danielcgold",
        "portfolio_url": "https://www.danielcgold.com?friends=unsplash",
        "bio": "Currently traveling through South America.\r\n\r\nFor daily photos follow me on IG: instagram.com/danielcgold",
        "location": "New York City",
        "links": {
          "self": "https://api.unsplash.com/users/danielcgold",
          "html": "https://unsplash.com/@danielcgold",
          "photos": "https://api.unsplash.com/users/danielcgold/photos",
          "likes": "https://api.unsplash.com/users/danielcgold/likes",
          "portfolio": "https://api.unsplash.com/users/danielcgold/portfolio",
          "following": "https://api.unsplash.com/users/danielcgold/following",
          "followers": "https://api.unsplash.com/users/danielcgold/followers"
        },
        "profile_image": {
          "small": "https://images.unsplash.com/profile-1442326044675-1c0fd9643709?ixlib=rb-1.2.1&q=80&fm=jpg&crop=faces&cs=tinysrgb&fit=crop&h=32&w=32",
          "medium": "https://images.unsplash.com/profile-1442326044675-1c0fd9643709?ixlib=rb-1.2.1&q=80&fm=jpg&crop=faces&cs=tinysrgb&fit=crop&h=64&w=64",
          "large": "https://images.unsplash.com/profile-1442326044675-1c0fd9643709?ixlib=rb-1.2.1&q=80&fm=jpg&crop=faces&cs=tinysrgb&fit=crop&h=128&w=128"
        },
        "instagram_username": "danielcgold",
        "total_collections": 12,
        "total_likes": 6820,
        "total_photos": 549,
        "accepted_tos": true
      },
      "tags": [
        { "title": "vegetable" },
        { "title": "salad" },
        { "title": "healthy" },
        { "title": "broccoli" },
        { "title": "servings" },
        { "title": "salad bar" },
        { "title": "deli" },
        { "title": "health" },
        { "title": "bowl" },
        { "title": "kidney beans" },
        { "title": "pepper" },
        { "title": "fresh" },
        { "title": "carrot" },
        { "title": "tomato" },
        { "title": "olives" },
        { "title": "topdown" },
        { "title": "sliced" },
        { "title": "slices" },
        { "title": "red onion" },
        { "title": "mushrooms" }
      ]
    },
    {
      "id": "hrlvr2ZlUNk",
      "created_at": "2017-09-06T23:25:07-04:00",
      "updated_at": "2019-05-21T01:04:09-04:00",
      "width": 6000,
      "height": 4000,
      "color": "#11110E",
      "description": "My friends and I were at the last few weeks of college so we decided to maximize the time we had left together by embarking on a 12 hour road trip through the southwest. On our back from New Mexico, we stayed at an amazing Airbnb right in the heart of old town Tucson, Arizona. We thought it\u2019d be a lovely idea to make our own meals at this quaint Airbnb and what a lovely idea it was. Our Airbnb also had such cute dishes and tablecloths that made this flatlay all the more perfect. It was a great morning spent in a great place with the greatest company.",
      "alt_description": "round white ceramic plate filled with waffle",
      "urls": {
        "raw": "https://images.unsplash.com/photo-1504754524776-8f4f37790ca0?ixlib=rb-1.2.1&ixid=eyJhcHBfaWQiOjk2OTN9",
        "full": "https://images.unsplash.com/photo-1504754524776-8f4f37790ca0?ixlib=rb-1.2.1&q=85&fm=jpg&crop=entropy&cs=srgb&ixid=eyJhcHBfaWQiOjk2OTN9",
        "regular": "https://images.unsplash.com/photo-1504754524776-8f4f37790ca0?ixlib=rb-1.2.1&q=80&fm=jpg&crop=entropy&cs=tinysrgb&w=1080&fit=max&ixid=eyJhcHBfaWQiOjk2OTN9",
        "small": "https://images.unsplash.com/photo-1504754524776-8f4f37790ca0?ixlib=rb-1.2.1&q=80&fm=jpg&crop=entropy&cs=tinysrgb&w=400&fit=max&ixid=eyJhcHBfaWQiOjk2OTN9",
        "thumb": "https://images.unsplash.com/photo-1504754524776-8f4f37790ca0?ixlib=rb-1.2.1&q=80&fm=jpg&crop=entropy&cs=tinysrgb&w=200&fit=max&ixid=eyJhcHBfaWQiOjk2OTN9"
      },
      "links": {
        "self": "https://api.unsplash.com/photos/hrlvr2ZlUNk",
        "html": "https://unsplash.com/photos/hrlvr2ZlUNk",
        "download": "https://unsplash.com/photos/hrlvr2ZlUNk/download",
        "download_location": "https://api.unsplash.com/photos/hrlvr2ZlUNk/download"
      },
      "categories": [],
      "sponsored": false,
      "sponsored_by": null,
      "sponsored_impressions_id": null,
      "likes": 873,
      "liked_by_user": false,
      "current_user_collections": [],
      "user": {
        "id": "Go1YQ0Rp_JU",
        "updated_at": "2019-05-26T11:51:27-04:00",
        "username": "therachelstory",
        "name": "Rachel Park",
        "first_name": "Rachel",
        "last_name": "Park",
        "twitter_username": "therachelstory",
        "portfolio_url": "https://therachelstory.com",
        "bio": "Recent grad just trying to make my way through the good ol' maze that's life. (Too clich\u00e9? Probably).",
        "location": "Los Angeles",
        "links": {
          "self": "https://api.unsplash.com/users/therachelstory",
          "html": "https://unsplash.com/@therachelstory",
          "photos": "https://api.unsplash.com/users/therachelstory/photos",
          "likes": "https://api.unsplash.com/users/therachelstory/likes",
          "portfolio": "https://api.unsplash.com/users/therachelstory/portfolio",
          "following": "https://api.unsplash.com/users/therachelstory/following",
          "followers": "https://api.unsplash.com/users/therachelstory/followers"
        },
        "profile_image": {
          "small": "https://images.unsplash.com/profile-fb-1504666801-be8e8c193a97.jpg?ixlib=rb-1.2.1&q=80&fm=jpg&crop=faces&cs=tinysrgb&fit=crop&h=32&w=32",
          "medium": "https://images.unsplash.com/profile-fb-1504666801-be8e8c193a97.jpg?ixlib=rb-1.2.1&q=80&fm=jpg&crop=faces&cs=tinysrgb&fit=crop&h=64&w=64",
          "large": "https://images.unsplash.com/profile-fb-1504666801-be8e8c193a97.jpg?ixlib=rb-1.2.1&q=80&fm=jpg&crop=faces&cs=tinysrgb&fit=crop&h=128&w=128"
        },
        "instagram_username": "therachelstory",
        "total_collections": 0,
        "total_likes": 1,
        "total_photos": 3,
        "accepted_tos": false
      },
      "tags": [
        { "title": "breakfast" },
        { "title": "bowl" },
        { "title": "dinner" },
        { "title": "supper" },
        { "title": "meal" },
        { "title": "fruit" },
        { "title": "table" },
        { "title": "plant" },
        { "title": "flora" },
        { "title": "strawberry" },
        { "title": "produce" },
        { "title": "drink" },
        { "title": "tucson" },
        { "title": "united states" },
        { "title": "plate" },
        { "title": "furniture" },
        { "title": "dining table" },
        { "title": "eggs" },
        { "title": "pancakes" },
        { "title": "blueberries" }
      ]
    },
    {
      "id": "fdlZBWIP0aM",
      "created_at": "2016-12-18T03:11:37-05:00",
      "updated_at": "2019-05-21T01:04:16-04:00",
      "width": 3673,
      "height": 5207,
      "color": "#EA9E06",
      "description": "Avocado and Egg Toast",
      "alt_description": "sandwich with boiled egg",
      "urls": {
        "raw": "https://images.unsplash.com/photo-1482049016688-2d3e1b311543?ixlib=rb-1.2.1&ixid=eyJhcHBfaWQiOjk2OTN9",
        "full": "https://images.unsplash.com/photo-1482049016688-2d3e1b311543?ixlib=rb-1.2.1&q=85&fm=jpg&crop=entropy&cs=srgb&ixid=eyJhcHBfaWQiOjk2OTN9",
        "regular": "https://images.unsplash.com/photo-1482049016688-2d3e1b311543?ixlib=rb-1.2.1&q=80&fm=jpg&crop=entropy&cs=tinysrgb&w=1080&fit=max&ixid=eyJhcHBfaWQiOjk2OTN9",
        "small": "https://images.unsplash.com/photo-1482049016688-2d3e1b311543?ixlib=rb-1.2.1&q=80&fm=jpg&crop=entropy&cs=tinysrgb&w=400&fit=max&ixid=eyJhcHBfaWQiOjk2OTN9",
        "thumb": "https://images.unsplash.com/photo-1482049016688-2d3e1b311543?ixlib=rb-1.2.1&q=80&fm=jpg&crop=entropy&cs=tinysrgb&w=200&fit=max&ixid=eyJhcHBfaWQiOjk2OTN9"
      },
      "links": {
        "self": "https://api.unsplash.com/photos/fdlZBWIP0aM",
        "html": "https://unsplash.com/photos/fdlZBWIP0aM",
        "download": "https://unsplash.com/photos/fdlZBWIP0aM/download",
        "download_location": "https://api.unsplash.com/photos/fdlZBWIP0aM/download"
      },
      "categories": [],
      "sponsored": false,
      "sponsored_by": null,
      "sponsored_impressions_id": null,
      "likes": 915,
      "liked_by_user": false,
      "current_user_collections": [],
      "user": {
        "id": "sF9MIPALS80",
        "updated_at": "2019-05-25T16:34:28-04:00",
        "username": "miracletwentyone",
        "name": "Joseph Gonzalez",
        "first_name": "Joseph",
        "last_name": "Gonzalez",
        "twitter_username": "miracle21",
        "portfolio_url": "http://www.miracletwentyone.org",
        "bio": "Design | Photographer | Artist ",
        "location": "Valparaiso, IN",
        "links": {
          "self": "https://api.unsplash.com/users/miracletwentyone",
          "html": "https://unsplash.com/@miracletwentyone",
          "photos": "https://api.unsplash.com/users/miracletwentyone/photos",
          "likes": "https://api.unsplash.com/users/miracletwentyone/likes",
          "portfolio": "https://api.unsplash.com/users/miracletwentyone/portfolio",
          "following": "https://api.unsplash.com/users/miracletwentyone/following",
          "followers": "https://api.unsplash.com/users/miracletwentyone/followers"
        },
        "profile_image": {
          "small": "https://images.unsplash.com/profile-1518156163490-947fb5399aa6?ixlib=rb-1.2.1&q=80&fm=jpg&crop=faces&cs=tinysrgb&fit=crop&h=32&w=32",
          "medium": "https://images.unsplash.com/profile-1518156163490-947fb5399aa6?ixlib=rb-1.2.1&q=80&fm=jpg&crop=faces&cs=tinysrgb&fit=crop&h=64&w=64",
          "large": "https://images.unsplash.com/profile-1518156163490-947fb5399aa6?ixlib=rb-1.2.1&q=80&fm=jpg&crop=faces&cs=tinysrgb&fit=crop&h=128&w=128"
        },
        "instagram_username": null,
        "total_collections": 0,
        "total_likes": 70,
        "total_photos": 63,
        "accepted_tos": true
      },
      "tags": [
        { "title": "healthy" },
        { "title": "meal" },
        { "title": "flower" },
        { "title": "boiled egg" },
        { "title": "avocado" },
        { "title": "egg" },
        { "title": "plate" },
        { "title": "foodie" },
        { "title": "breakfast" },
        { "title": "health" },
        { "title": "salad" },
        { "title": "lamp" },
        { "title": "eucalyptus" },
        { "title": "grater" },
        { "title": "slate" },
        { "title": "spinach" },
        { "title": "lunch" },
        { "title": "toast" },
        { "title": "snack" },
        { "title": "culinary" }
      ]
    },
    {
      "id": "P1aohbiT-EY",
      "created_at": "2018-07-30T15:58:37-04:00",
      "updated_at": "2019-05-21T01:02:35-04:00",
      "width": 4000,
      "height": 6000,
      "color": "#FED005",
      "description": "It\u2019s good to start or finish the day with delicious pancakes :)",
      "alt_description": "pancake with orange and blueberries beside scattered chocolate and coffee beans",
      "urls": {
        "raw": "https://images.unsplash.com/photo-1532980400857-e8d9d275d858?ixlib=rb-1.2.1&ixid=eyJhcHBfaWQiOjk2OTN9",
        "full": "https://images.unsplash.com/photo-1532980400857-e8d9d275d858?ixlib=rb-1.2.1&q=85&fm=jpg&crop=entropy&cs=srgb&ixid=eyJhcHBfaWQiOjk2OTN9",
        "regular": "https://images.unsplash.com/photo-1532980400857-e8d9d275d858?ixlib=rb-1.2.1&q=80&fm=jpg&crop=entropy&cs=tinysrgb&w=1080&fit=max&ixid=eyJhcHBfaWQiOjk2OTN9",
        "small": "https://images.unsplash.com/photo-1532980400857-e8d9d275d858?ixlib=rb-1.2.1&q=80&fm=jpg&crop=entropy&cs=tinysrgb&w=400&fit=max&ixid=eyJhcHBfaWQiOjk2OTN9",
        "thumb": "https://images.unsplash.com/photo-1532980400857-e8d9d275d858?ixlib=rb-1.2.1&q=80&fm=jpg&crop=entropy&cs=tinysrgb&w=200&fit=max&ixid=eyJhcHBfaWQiOjk2OTN9"
      },
      "links": {
        "self": "https://api.unsplash.com/photos/P1aohbiT-EY",
        "html": "https://unsplash.com/photos/P1aohbiT-EY",
        "download": "https://unsplash.com/photos/P1aohbiT-EY/download",
        "download_location": "https://api.unsplash.com/photos/P1aohbiT-EY/download"
      },
      "categories": [],
      "sponsored": false,
      "sponsored_by": null,
      "sponsored_impressions_id": null,
      "likes": 674,
      "liked_by_user": false,
      "current_user_collections": [],
      "user": {
        "id": "yahfs2dZAts",
        "updated_at": "2019-05-27T02:13:44-04:00",
        "username": "moniqa",
        "name": "Monika Grabkowska",
        "first_name": "Monika",
        "last_name": "Grabkowska",
        "twitter_username": null,
        "portfolio_url": "https://monikagrabkowska.com",
        "bio": "Food stylist & photographer. Loves nature and healthy food . Always happy to drink a good cup of coffee \u2615\ufe0f\r\nGirl from Poland living in Uk ",
        "location": "UK",
        "links": {
          "self": "https://api.unsplash.com/users/moniqa",
          "html": "https://unsplash.com/@moniqa",
          "photos": "https://api.unsplash.com/users/moniqa/photos",
          "likes": "https://api.unsplash.com/users/moniqa/likes",
          "portfolio": "https://api.unsplash.com/users/moniqa/portfolio",
          "following": "https://api.unsplash.com/users/moniqa/following",
          "followers": "https://api.unsplash.com/users/moniqa/followers"
        },
        "profile_image": {
          "small": "https://images.unsplash.com/profile-1500391272480-fa84aef91909?ixlib=rb-1.2.1&q=80&fm=jpg&crop=faces&cs=tinysrgb&fit=crop&h=32&w=32",
          "medium": "https://images.unsplash.com/profile-1500391272480-fa84aef91909?ixlib=rb-1.2.1&q=80&fm=jpg&crop=faces&cs=tinysrgb&fit=crop&h=64&w=64",
          "large": "https://images.unsplash.com/profile-1500391272480-fa84aef91909?ixlib=rb-1.2.1&q=80&fm=jpg&crop=faces&cs=tinysrgb&fit=crop&h=128&w=128"
        },
        "instagram_username": "moniqua_her_photography",
        "total_collections": 2,
        "total_likes": 681,
        "total_photos": 150,
        "accepted_tos": true
      },
      "tags": [
        { "title": "food photography" },
        { "title": "food styling" },
        { "title": "food flatlay" },
        { "title": "breakfast" },
        { "title": "blueberry" },
        { "title": "food presentation" },
        { "title": "food and drink" },
        { "title": "eating" },
        { "title": "eat" },
        { "title": "chocolate" },
        { "title": "pancake" },
        { "title": "foodie" },
        { "title": "yummy" },
        { "title": "orange" },
        { "title": "dark mood photography" },
        { "title": "natural light" },
        { "title": "dessert" },
        { "title": "drink" },
        { "title": "pancakes" }
      ]
    },
    {
      "id": "4J059aGa5s4",
      "created_at": "2018-01-03T13:14:43-05:00",
      "updated_at": "2019-05-21T01:06:24-04:00",
      "width": 5760,
      "height": 3840,
      "color": "#1E221A",
      "description": "Time to clean up the diet. So gone are the nights of wine-ing, and here arrived are the days of keto paleo carb-free breakfasting.",
      "alt_description": "pasta dish on brown plate",
      "urls": {
        "raw": "https://images.unsplash.com/photo-1515003197210-e0cd71810b5f?ixlib=rb-1.2.1&ixid=eyJhcHBfaWQiOjk2OTN9",
        "full": "https://images.unsplash.com/photo-1515003197210-e0cd71810b5f?ixlib=rb-1.2.1&q=85&fm=jpg&crop=entropy&cs=srgb&ixid=eyJhcHBfaWQiOjk2OTN9",
        "regular": "https://images.unsplash.com/photo-1515003197210-e0cd71810b5f?ixlib=rb-1.2.1&q=80&fm=jpg&crop=entropy&cs=tinysrgb&w=1080&fit=max&ixid=eyJhcHBfaWQiOjk2OTN9",
        "small": "https://images.unsplash.com/photo-1515003197210-e0cd71810b5f?ixlib=rb-1.2.1&q=80&fm=jpg&crop=entropy&cs=tinysrgb&w=400&fit=max&ixid=eyJhcHBfaWQiOjk2OTN9",
        "thumb": "https://images.unsplash.com/photo-1515003197210-e0cd71810b5f?ixlib=rb-1.2.1&q=80&fm=jpg&crop=entropy&cs=tinysrgb&w=200&fit=max&ixid=eyJhcHBfaWQiOjk2OTN9"
      },
      "links": {
        "self": "https://api.unsplash.com/photos/4J059aGa5s4",
        "html": "https://unsplash.com/photos/4J059aGa5s4",
        "download": "https://unsplash.com/photos/4J059aGa5s4/download",
        "download_location": "https://api.unsplash.com/photos/4J059aGa5s4/download"
      },
      "categories": [],
      "sponsored": false,
      "sponsored_by": null,
      "sponsored_impressions_id": null,
      "likes": 565,
      "liked_by_user": false,
      "current_user_collections": [],
      "user": {
        "id": "pVJLqUK0Dh4",
        "updated_at": "2019-05-27T07:02:04-04:00",
        "username": "brookelark",
        "name": "Brooke Lark",
        "first_name": "Brooke",
        "last_name": "Lark",
        "twitter_username": null,
        "portfolio_url": "http://www.brookelark.com",
        "bio": "Real Food fanatic. Bike rider. People lover. Running around with a camera.",
        "location": "SLC, UT",
        "links": {
          "self": "https://api.unsplash.com/users/brookelark",
          "html": "https://unsplash.com/@brookelark",
          "photos": "https://api.unsplash.com/users/brookelark/photos",
          "likes": "https://api.unsplash.com/users/brookelark/likes",
          "portfolio": "https://api.unsplash.com/users/brookelark/portfolio",
          "following": "https://api.unsplash.com/users/brookelark/following",
          "followers": "https://api.unsplash.com/users/brookelark/followers"
        },
        "profile_image": {
          "small": "https://images.unsplash.com/profile-1496175100457-27a8e68786eb?ixlib=rb-1.2.1&q=80&fm=jpg&crop=faces&cs=tinysrgb&fit=crop&h=32&w=32",
          "medium": "https://images.unsplash.com/profile-1496175100457-27a8e68786eb?ixlib=rb-1.2.1&q=80&fm=jpg&crop=faces&cs=tinysrgb&fit=crop&h=64&w=64",
          "large": "https://images.unsplash.com/profile-1496175100457-27a8e68786eb?ixlib=rb-1.2.1&q=80&fm=jpg&crop=faces&cs=tinysrgb&fit=crop&h=128&w=128"
        },
        "instagram_username": "brookelark",
        "total_collections": 0,
        "total_likes": 3,
        "total_photos": 102,
        "accepted_tos": false
      },
      "tags": [
        { "title": "meal" },
        { "title": "united states" },
        { "title": "salt lake city" },
        { "title": "noodles" },
        { "title": "egg" },
        { "title": "fork" },
        { "title": "food photography" },
        { "title": "plate" },
        { "title": "vegetable" },
        { "title": "blue" },
        { "title": "sphere" },
        { "title": "vegetarian" },
        { "title": "keto" },
        { "title": "eggs" },
        { "title": "eat" },
        { "title": "breakfast" },
        { "title": "healthy" },
        { "title": "sweet potato noodles" },
        { "title": "paleo" }
      ]
    },
    {
      "id": "-YHSwy6uqvk",
      "created_at": "2017-09-06T01:16:19-04:00",
      "updated_at": "2019-05-21T01:03:25-04:00",
      "width": 4350,
      "height": 2900,
      "color": "#EE1118",
      "description": null,
      "alt_description": "cooked dish on gray bowl",
      "urls": {
        "raw": "https://images.unsplash.com/photo-1504674900247-0877df9cc836?ixlib=rb-1.2.1&ixid=eyJhcHBfaWQiOjk2OTN9",
        "full": "https://images.unsplash.com/photo-1504674900247-0877df9cc836?ixlib=rb-1.2.1&q=85&fm=jpg&crop=entropy&cs=srgb&ixid=eyJhcHBfaWQiOjk2OTN9",
        "regular": "https://images.unsplash.com/photo-1504674900247-0877df9cc836?ixlib=rb-1.2.1&q=80&fm=jpg&crop=entropy&cs=tinysrgb&w=1080&fit=max&ixid=eyJhcHBfaWQiOjk2OTN9",
        "small": "https://images.unsplash.com/photo-1504674900247-0877df9cc836?ixlib=rb-1.2.1&q=80&fm=jpg&crop=entropy&cs=tinysrgb&w=400&fit=max&ixid=eyJhcHBfaWQiOjk2OTN9",
        "thumb": "https://images.unsplash.com/photo-1504674900247-0877df9cc836?ixlib=rb-1.2.1&q=80&fm=jpg&crop=entropy&cs=tinysrgb&w=200&fit=max&ixid=eyJhcHBfaWQiOjk2OTN9"
      },
      "links": {
        "self": "https://api.unsplash.com/photos/-YHSwy6uqvk",
        "html": "https://unsplash.com/photos/-YHSwy6uqvk",
        "download": "https://unsplash.com/photos/-YHSwy6uqvk/download",
        "download_location": "https://api.unsplash.com/photos/-YHSwy6uqvk/download"
      },
      "categories": [],
      "sponsored": false,
      "sponsored_by": null,
      "sponsored_impressions_id": null,
      "likes": 268,
      "liked_by_user": false,
      "current_user_collections": [],
      "user": {
        "id": "LJ-IkrVj9D8",
        "updated_at": "2019-05-25T18:41:19-04:00",
        "username": "lvnatikk",
        "name": "Lily Banse",
        "first_name": "Lily",
        "last_name": "Banse",
        "twitter_username": "LVnatikk",
        "portfolio_url": "http://instagram.com/Seventeen10",
        "bio": null,
        "location": null,
        "links": {
          "self": "https://api.unsplash.com/users/lvnatikk",
          "html": "https://unsplash.com/@lvnatikk",
          "photos": "https://api.unsplash.com/users/lvnatikk/photos",
          "likes": "https://api.unsplash.com/users/lvnatikk/likes",
          "portfolio": "https://api.unsplash.com/users/lvnatikk/portfolio",
          "following": "https://api.unsplash.com/users/lvnatikk/following",
          "followers": "https://api.unsplash.com/users/lvnatikk/followers"
        },
        "profile_image": {
          "small": "https://images.unsplash.com/placeholder-avatars/extra-large.jpg?ixlib=rb-1.2.1&q=80&fm=jpg&crop=faces&cs=tinysrgb&fit=crop&h=32&w=32",
          "medium": "https://images.unsplash.com/placeholder-avatars/extra-large.jpg?ixlib=rb-1.2.1&q=80&fm=jpg&crop=faces&cs=tinysrgb&fit=crop&h=64&w=64",
          "large": "https://images.unsplash.com/placeholder-avatars/extra-large.jpg?ixlib=rb-1.2.1&q=80&fm=jpg&crop=faces&cs=tinysrgb&fit=crop&h=128&w=128"
        },
        "instagram_username": "Seventeen10",
        "total_collections": 12,
        "total_likes": 21,
        "total_photos": 112,
        "accepted_tos": true
      },
      "tags": [
        { "title": "bowl" },
        { "title": "meal" },
        { "title": "singapore" },
        { "title": "lunch" },
        { "title": "flatlay" },
        { "title": "sauce" },
        { "title": "steak" },
        { "title": "salad" },
        { "title": "dinner" },
        { "title": "supper" },
        { "title": "cashew" },
        { "title": "nuts" },
        { "title": "chilli" },
        { "title": "herbs" },
        { "title": "pasta" },
        { "title": "vermicelli" },
        { "title": "noodle" },
        { "title": "pot" },
        { "title": "dish" },
        { "title": "plate" }
      ]
    },
    {
      "id": "w6ftFbPCs9I",
      "created_at": "2016-10-17T11:36:28-04:00",
      "updated_at": "2019-05-21T01:02:38-04:00",
      "width": 2000,
      "height": 3000,
      "color": "#22160C",
      "description": "Autumn Soup",
      "alt_description": "two sauces topped with seeds",
      "urls": {
        "raw": "https://images.unsplash.com/photo-1476718406336-bb5a9690ee2a?ixlib=rb-1.2.1&ixid=eyJhcHBfaWQiOjk2OTN9",
        "full": "https://images.unsplash.com/photo-1476718406336-bb5a9690ee2a?ixlib=rb-1.2.1&q=85&fm=jpg&crop=entropy&cs=srgb&ixid=eyJhcHBfaWQiOjk2OTN9",
        "regular": "https://images.unsplash.com/photo-1476718406336-bb5a9690ee2a?ixlib=rb-1.2.1&q=80&fm=jpg&crop=entropy&cs=tinysrgb&w=1080&fit=max&ixid=eyJhcHBfaWQiOjk2OTN9",
        "small": "https://images.unsplash.com/photo-1476718406336-bb5a9690ee2a?ixlib=rb-1.2.1&q=80&fm=jpg&crop=entropy&cs=tinysrgb&w=400&fit=max&ixid=eyJhcHBfaWQiOjk2OTN9",
        "thumb": "https://images.unsplash.com/photo-1476718406336-bb5a9690ee2a?ixlib=rb-1.2.1&q=80&fm=jpg&crop=entropy&cs=tinysrgb&w=200&fit=max&ixid=eyJhcHBfaWQiOjk2OTN9"
      },
      "links": {
        "self": "https://api.unsplash.com/photos/w6ftFbPCs9I",
        "html": "https://unsplash.com/photos/w6ftFbPCs9I",
        "download": "https://unsplash.com/photos/w6ftFbPCs9I/download",
        "download_location": "https://api.unsplash.com/photos/w6ftFbPCs9I/download"
      },
      "categories": [],
      "sponsored": false,
      "sponsored_by": null,
      "sponsored_impressions_id": null,
      "likes": 1077,
      "liked_by_user": false,
      "current_user_collections": [],
      "user": {
        "id": "arA0Epa-UJg",
        "updated_at": "2019-05-26T06:36:37-04:00",
        "username": "calya1",
        "name": "Cayla1",
        "first_name": "Cayla1",
        "last_name": null,
        "twitter_username": null,
        "portfolio_url": null,
        "bio": null,
        "location": null,
        "links": {
          "self": "https://api.unsplash.com/users/calya1",
          "html": "https://unsplash.com/@calya1",
          "photos": "https://api.unsplash.com/users/calya1/photos",
          "likes": "https://api.unsplash.com/users/calya1/likes",
          "portfolio": "https://api.unsplash.com/users/calya1/portfolio",
          "following": "https://api.unsplash.com/users/calya1/following",
          "followers": "https://api.unsplash.com/users/calya1/followers"
        },
        "profile_image": {
          "small": "https://images.unsplash.com/profile-1518764843786-316d5c7cac9e?ixlib=rb-1.2.1&q=80&fm=jpg&crop=faces&cs=tinysrgb&fit=crop&h=32&w=32",
          "medium": "https://images.unsplash.com/profile-1518764843786-316d5c7cac9e?ixlib=rb-1.2.1&q=80&fm=jpg&crop=faces&cs=tinysrgb&fit=crop&h=64&w=64",
          "large": "https://images.unsplash.com/profile-1518764843786-316d5c7cac9e?ixlib=rb-1.2.1&q=80&fm=jpg&crop=faces&cs=tinysrgb&fit=crop&h=128&w=128"
        },
        "instagram_username": null,
        "total_collections": 0,
        "total_likes": 63,
        "total_photos": 9,
        "accepted_tos": false
      },
      "tags": [
        { "title": "soup" },
        { "title": "bowl" },
        { "title": "healthy" },
        { "title": "soup bowl" },
        { "title": "dish" },
        { "title": "meal" },
        { "title": "plate" },
        { "title": "person" },
        { "title": "human" },
        { "title": "people" },
        { "title": "curry" },
        { "title": "cheese" },
        { "title": "seeds" },
        { "title": "leaf" },
        { "title": "spoon" },
        { "title": "drink" },
        { "title": "website" },
        { "title": "pumpkin" },
        { "title": "nutrition" },
        { "title": "blog" }
      ]
    },
    {
      "id": "sTPy-oeA3h0",
      "created_at": "2018-11-27T18:56:28-05:00",
      "updated_at": "2019-05-21T01:04:16-04:00",
      "width": 6554,
      "height": 8192,
      "color": "#1F381E",
      "description": "DOSE Juice",
      "alt_description": "sliced fruit and vegetables",
      "urls": {
        "raw": "https://images.unsplash.com/photo-1543362906-acfc16c67564?ixlib=rb-1.2.1&ixid=eyJhcHBfaWQiOjk2OTN9",
        "full": "https://images.unsplash.com/photo-1543362906-acfc16c67564?ixlib=rb-1.2.1&q=85&fm=jpg&crop=entropy&cs=srgb&ixid=eyJhcHBfaWQiOjk2OTN9",
        "regular": "https://images.unsplash.com/photo-1543362906-acfc16c67564?ixlib=rb-1.2.1&q=80&fm=jpg&crop=entropy&cs=tinysrgb&w=1080&fit=max&ixid=eyJhcHBfaWQiOjk2OTN9",
        "small": "https://images.unsplash.com/photo-1543362906-acfc16c67564?ixlib=rb-1.2.1&q=80&fm=jpg&crop=entropy&cs=tinysrgb&w=400&fit=max&ixid=eyJhcHBfaWQiOjk2OTN9",
        "thumb": "https://images.unsplash.com/photo-1543362906-acfc16c67564?ixlib=rb-1.2.1&q=80&fm=jpg&crop=entropy&cs=tinysrgb&w=200&fit=max&ixid=eyJhcHBfaWQiOjk2OTN9"
      },
      "links": {
        "self": "https://api.unsplash.com/photos/sTPy-oeA3h0",
        "html": "https://unsplash.com/photos/sTPy-oeA3h0",
        "download": "https://unsplash.com/photos/sTPy-oeA3h0/download",
        "download_location": "https://api.unsplash.com/photos/sTPy-oeA3h0/download"
      },
      "categories": [],
      "sponsored": false,
      "sponsored_by": null,
      "sponsored_impressions_id": null,
      "likes": 554,
      "liked_by_user": false,
      "current_user_collections": [],
      "user": {
        "id": "OgeHAC0kWGw",
        "updated_at": "2019-05-27T00:49:07-04:00",
        "username": "dosejuice",
        "name": "Dose Juice",
        "first_name": "Dose Juice",
        "last_name": null,
        "twitter_username": "dosejuice",
        "portfolio_url": "https://dosejuice.com/",
        "bio": "Raw organic cold pressed juices & smoothies delivered to your door or available at a store near you. \ud83c\udde8\ud83c\udde6",
        "location": "Montreal, Canada",
        "links": {
          "self": "https://api.unsplash.com/users/dosejuice",
          "html": "https://unsplash.com/@dosejuice",
          "photos": "https://api.unsplash.com/users/dosejuice/photos",
          "likes": "https://api.unsplash.com/users/dosejuice/likes",
          "portfolio": "https://api.unsplash.com/users/dosejuice/portfolio",
          "following": "https://api.unsplash.com/users/dosejuice/following",
          "followers": "https://api.unsplash.com/users/dosejuice/followers"
        },
        "profile_image": {
          "small": "https://images.unsplash.com/profile-1543433737221-49cd384f03e9?ixlib=rb-1.2.1&q=80&fm=jpg&crop=faces&cs=tinysrgb&fit=crop&h=32&w=32",
          "medium": "https://images.unsplash.com/profile-1543433737221-49cd384f03e9?ixlib=rb-1.2.1&q=80&fm=jpg&crop=faces&cs=tinysrgb&fit=crop&h=64&w=64",
          "large": "https://images.unsplash.com/profile-1543433737221-49cd384f03e9?ixlib=rb-1.2.1&q=80&fm=jpg&crop=faces&cs=tinysrgb&fit=crop&h=128&w=128"
        },
        "instagram_username": "dosejuice",
        "total_collections": 0,
        "total_likes": 0,
        "total_photos": 40,
        "accepted_tos": true
      },
      "tags": [
        { "title": "fruit" },
        { "title": "citrus fruit" },
        { "title": "plant" },
        { "title": "lime" },
        { "title": "vegetable" },
        { "title": "green" },
        { "title": "spinach" },
        { "title": "lemon" },
        { "title": "cucumber" },
        { "title": "kale" },
        { "title": "lettuce" },
        { "title": "celery" },
        { "title": "cilantro" },
        { "title": "green apple" },
        { "title": "deconstructed" },
        { "title": "pea" },
        { "title": "pottery" },
        { "title": "drink" },
        { "title": "green tea" },
        { "title": "beverage" }
      ]
    }
  ]
}
