{
    "results":[
     {
         "book":"book001",
         "book_en":"Think And Grow Rich Collector’s Edition",
         "book_tw":"思考致富的聖經",
         "review":"<h5>第一章-意念成就事實</h5>分享第一章的感想，",
         "img":"https://im2.book.com.tw/image/getImage?i=https://www.books.com.tw/img/001/065/46/0010654650_bc_01.jpg&v=544a5481&w=348&h=348"
     }       
    ]
}